…
Cek apakah dataset 'tb8' sama dengan dataset 'tb_all'! Menurut Anda, cara penulisan *syntax* manakah yang lebih mudah digunakan dan dipahami?


```r
library(dplyr)
tb8
```

```
## # A tibble: 4,037 x 5
##    country      year cases population proportion
##    <chr>       <int> <int>      <int>      <dbl>
##  1 Afghanistan  1995     0   17586073   0       
##  2 Afghanistan  1996     0   18415307   0       
##  3 Afghanistan  1997   128   19021226   0.000673
##  4 Afghanistan  1998  1778   19496836   0.00912 
##  5 Afghanistan  1999   745   19987071   0.00373 
##  6 Afghanistan  2000  2666   20595360   0.0129  
##  7 Afghanistan  2001  4639   21347782   0.0217  
##  8 Afghanistan  2002  6509   22202806   0.0293  
##  9 Afghanistan  2003  6528   23116142   0.0282  
## 10 Afghanistan  2004  8245   24018682   0.0343  
## # ... with 4,027 more rows
```

```r
tb_all
```

```
## # A tibble: 4,037 x 5
##    country      year cases population proportion
##    <chr>       <int> <int>      <int>      <dbl>
##  1 Afghanistan  1995     0   17586073   0       
##  2 Afghanistan  1996     0   18415307   0       
##  3 Afghanistan  1997   128   19021226   0.000673
##  4 Afghanistan  1998  1778   19496836   0.00912 
##  5 Afghanistan  1999   745   19987071   0.00373 
##  6 Afghanistan  2000  2666   20595360   0.0129  
##  7 Afghanistan  2001  4639   21347782   0.0217  
##  8 Afghanistan  2002  6509   22202806   0.0293  
##  9 Afghanistan  2003  6528   23116142   0.0282  
## 10 Afghanistan  2004  8245   24018682   0.0343  
## # ... with 4,027 more rows
```

```r
gather(tb8, tb_all)
```

```
## # A tibble: 20,185 x 2
##    tb_all  value      
##    <chr>   <chr>      
##  1 country Afghanistan
##  2 country Afghanistan
##  3 country Afghanistan
##  4 country Afghanistan
##  5 country Afghanistan
##  6 country Afghanistan
##  7 country Afghanistan
##  8 country Afghanistan
##  9 country Afghanistan
## 10 country Afghanistan
## # ... with 20,175 more rows
```
