…
```
## See spec(...) for full column specifications.
```

```r
evals
```

```
## # A tibble: 463 x 21
##    score rank  ethnicity gender language   age cls_perc_eval cls_did_eval
##    <dbl> <chr> <chr>     <chr>  <chr>    <dbl>         <dbl>        <dbl>
##  1   4.7 tenu~ minority  female english     36          55.8           24
##  2   4.1 tenu~ minority  female english     36          68.8           86
##  3   3.9 tenu~ minority  female english     36          60.8           76
##  4   4.8 tenu~ minority  female english     36          62.6           77
##  5   4.6 tenu~ not mino~ male   english     59          85             17
##  6   4.3 tenu~ not mino~ male   english     59          87.5           35
##  7   2.8 tenu~ not mino~ male   english     59          88.6           39
##  8   4.1 tenu~ not mino~ male   english     51         100             55
##  9   3.4 tenu~ not mino~ male   english     51          56.9          111
## 10   4.5 tenu~ not mino~ female english     40          87.0           40
## # ... with 453 more rows, and 13 more variables: cls_students <dbl>,
## #   cls_level <chr>, cls_profs <chr>, cls_credits <chr>,
## #   bty_f1lower <dbl>, bty_f1upper <dbl>, bty_f2upper <dbl>,
## #   bty_m1lower <dbl>, bty_m1upper <dbl>, bty_m2upper <dbl>,
## #   bty_avg <dbl>, pic_outfit <chr>, pic_color <chr>
```
…
Perbedaan apa yang paling nampak antara `model1_vals_broom` dan `model1_vals_modelr`?


```r
model1_vals_broom
```

```
## # A tibble: 463 x 9
##    score bty_avg .fitted .se.fit   .resid    .hat .sigma .cooksd .std.resid
##    <dbl>   <dbl>   <dbl>   <dbl>    <dbl>   <dbl>  <dbl>   <dbl>      <dbl>
##  1   4.7    5       4.21  0.0266  0.486   0.00247  0.535 1.03e-3    0.911  
##  2   4.1    5       4.21  0.0266 -0.114   0.00247  0.535 5.60e-5   -0.213  
##  3   3.9    5       4.21  0.0266 -0.314   0.00247  0.535 4.27e-4   -0.587  
##  4   4.8    5       4.21  0.0266  0.586   0.00247  0.535 1.49e-3    1.10   
##  5   4.6    3       4.08  0.0339  0.520   0.00403  0.535 1.92e-3    0.974  
##  6   4.3    3       4.08  0.0339  0.220   0.00403  0.535 3.43e-4    0.412  
##  7   2.8    3       4.08  0.0339 -1.28    0.00403  0.532 1.16e-2   -2.40   
##  8   4.1    3.33    4.10  0.0305 -0.00244 0.00325  0.535 3.40e-8   -0.00457
##  9   3.4    3.33    4.10  0.0305 -0.702   0.00325  0.534 2.82e-3   -1.32   
## 10   4.5    3.17    4.09  0.0321  0.409   0.00361  0.535 1.06e-3    0.765  
## # ... with 453 more rows
```

```r
model1_vals_modelr
```

```
## # A tibble: 463 x 23
##    score rank  ethnicity gender language   age cls_perc_eval cls_did_eval
##    <dbl> <chr> <chr>     <chr>  <chr>    <dbl>         <dbl>        <dbl>
##  1   4.7 tenu~ minority  female english     36          55.8           24
##  2   4.1 tenu~ minority  female english     36          68.8           86
##  3   3.9 tenu~ minority  female english     36          60.8           76
##  4   4.8 tenu~ minority  female english     36          62.6           77
##  5   4.6 tenu~ not mino~ male   english     59          85             17
##  6   4.3 tenu~ not mino~ male   english     59          87.5           35
##  7   2.8 tenu~ not mino~ male   english     59          88.6           39
##  8   4.1 tenu~ not mino~ male   english     51         100             55
##  9   3.4 tenu~ not mino~ male   english     51          56.9          111
## 10   4.5 tenu~ not mino~ female english     40          87.0           40
## # ... with 453 more rows, and 15 more variables: cls_students <dbl>,
## #   cls_level <chr>, cls_profs <chr>, cls_credits <chr>,
## #   bty_f1lower <dbl>, bty_f1upper <dbl>, bty_f2upper <dbl>,
## #   bty_m1lower <dbl>, bty_m1upper <dbl>, bty_m2upper <dbl>,
## #   bty_avg <dbl>, pic_outfit <chr>, pic_color <chr>, pred <dbl>,
## #   resid <dbl>
```
…
